\relax 
\@writefile{toc}{\contentsline {section}{\numberline {1}Introduction}{1}}
\@writefile{toc}{\contentsline {section}{\numberline {2}Problem structure definition}{2}}
\@writefile{toc}{\contentsline {section}{\numberline {3}Methodology}{2}}
\@writefile{toc}{\contentsline {subsection}{\numberline {3.1}Selection}{3}}
\@writefile{toc}{\contentsline {subsection}{\numberline {3.2}Crossover}{4}}
\@writefile{toc}{\contentsline {subsubsection}{\numberline {3.2.1}Mean Crossover}{4}}
\@writefile{lof}{\contentsline {figure}{\numberline {1}{\ignorespaces Example of mean crossover\relax }}{4}}
\providecommand*\caption@xref[2]{\@setref\relax\@undefined{#1}}
\newlabel{mean crossover}{{1}{4}}
\@writefile{toc}{\contentsline {subsubsection}{\numberline {3.2.2}Coin Crossover}{5}}
\@writefile{lof}{\contentsline {figure}{\numberline {2}{\ignorespaces Example of coin crossover\relax }}{5}}
\newlabel{coin crossover}{{2}{5}}
\@writefile{toc}{\contentsline {subsection}{\numberline {3.3}Mutation}{5}}
\@writefile{lof}{\contentsline {figure}{\numberline {3}{\ignorespaces \relax }}{6}}
\newlabel{mutation}{{3}{6}}
\@writefile{toc}{\contentsline {section}{\numberline {4}Results}{6}}
\@writefile{toc}{\contentsline {subsection}{\numberline {4.1}Mean Crossover}{6}}
\@writefile{lof}{\contentsline {figure}{\numberline {4}{\ignorespaces \relax }}{7}}
\newlabel{mean histogram}{{4}{7}}
\@writefile{lof}{\contentsline {figure}{\numberline {5}{\ignorespaces \relax }}{7}}
\newlabel{mean boxplot}{{5}{7}}
\@writefile{lof}{\contentsline {figure}{\numberline {6}{\ignorespaces \relax }}{8}}
\newlabel{mean sd}{{6}{8}}
\@writefile{lof}{\contentsline {figure}{\numberline {7}{\ignorespaces \relax }}{8}}
\newlabel{mean average}{{7}{8}}
\@writefile{lof}{\contentsline {figure}{\numberline {8}{\ignorespaces \relax }}{9}}
\newlabel{mean max}{{8}{9}}
\@writefile{lof}{\contentsline {figure}{\numberline {9}{\ignorespaces \relax }}{10}}
\newlabel{mean composition}{{9}{10}}
\@writefile{lof}{\contentsline {figure}{\numberline {10}{\ignorespaces "\leavevmode {\color  {red}\#}" represent values of the optmimum\relax }}{10}}
\newlabel{mean variables boxplot}{{10}{10}}
\@writefile{lof}{\contentsline {figure}{\numberline {11}{\ignorespaces \relax }}{11}}
\newlabel{mean variables}{{11}{11}}
\@writefile{lof}{\contentsline {figure}{\numberline {12}{\ignorespaces \relax }}{11}}
\newlabel{mean variables 16}{{12}{11}}
\@writefile{toc}{\contentsline {subsection}{\numberline {4.2}Coin Crossover}{11}}
\@writefile{lof}{\contentsline {figure}{\numberline {13}{\ignorespaces \relax }}{12}}
\newlabel{coin histogram}{{13}{12}}
\@writefile{lof}{\contentsline {figure}{\numberline {14}{\ignorespaces \relax }}{13}}
\newlabel{coin boxplot}{{14}{13}}
\@writefile{lof}{\contentsline {figure}{\numberline {15}{\ignorespaces \relax }}{13}}
\newlabel{coin sd}{{15}{13}}
\@writefile{lof}{\contentsline {figure}{\numberline {16}{\ignorespaces \relax }}{14}}
\newlabel{coin average}{{16}{14}}
\@writefile{lof}{\contentsline {figure}{\numberline {17}{\ignorespaces \relax }}{15}}
\newlabel{coin max}{{17}{15}}
\@writefile{lof}{\contentsline {figure}{\numberline {18}{\ignorespaces \relax }}{15}}
\newlabel{coin composition}{{18}{15}}
\@writefile{lof}{\contentsline {figure}{\numberline {19}{\ignorespaces "\leavevmode {\color  {red}\#}" represent values of the optmimum\relax }}{16}}
\newlabel{coin variables boxplot}{{19}{16}}
\@writefile{lof}{\contentsline {figure}{\numberline {20}{\ignorespaces \relax }}{16}}
\newlabel{coin variables}{{20}{16}}
\@writefile{lof}{\contentsline {figure}{\numberline {21}{\ignorespaces \relax }}{17}}
\newlabel{coin variables 16}{{21}{17}}
\@writefile{toc}{\contentsline {section}{\numberline {5}Conclusions}{17}}
